…
print(unique_end_dates)
This will display the unique, non-missing values in the end_date column so we can confirm the correct date format. Once we know the format, we can adjust the date conversion step accordingly. Let me know the output you see!






You said:
> print(unique_end_dates)
# A tibble: 875 × 1
   end_date
   <chr>   
 1 10/18/24
 2 10/17/24
 3 10/16/24
 4 10/15/24
 5 10/14/24
 6 10/13/24
 7 10/12/24
 8 10/11/24
 9 10/10/24
10 10/9/24 
# ℹ 865 more rows
# ℹ Use print(n = ...) to see more rows
…
Given that Harris has a higher average, you may want to inspect if specific filters or groupings during cleaning might have affected the support_diff calculation.
This should help reveal if Trump’s lead in most rows is due to the distribution of poll results or if there’s an inconsistency in the dataset preparation. Let me know if any insights arise from these checks!






You said:
> print(harris_leads)
# A tibble: 215 × 7
   state   end_date   end_date_num Trump_pct Harris_pct support_diff winner
   <chr>   <date>            <dbl>     <dbl>      <dbl>        <dbl>  <dbl>
 1 Arizona 2024-07-28          687      45.5       48.5       -3          0
 2 Arizona 2024-08-03          693      43         44         -1          0
 3 Arizona 2024-08-05          695      42.8       43.2       -0.400      0
 4 Arizona 2024-08-14          704      46         47         -1          0
 5 Arizona 2024-08-15          705      43.8       46.8       -3          0
 6 Arizona 2024-08-26          716      48         49         -1          0
 7 Arizona 2024-08-27          717      47.5       48.5       -1          0
 8 Arizona 2024-09-05          726      46.6       46.6       -0.100      0
 9 Arizona 2024-09-25          746      47.6       49.2       -1.62       0
10 Arizona 2024-09-29          750      45.7       47.3       -1.60       0
# ℹ 205 more rows
…
